<?xml version="1.0" encoding="utf-8"?>
<!-- Generator: Adobe Illustrator 16.0.4, SVG Export Plug-In . SVG Version: 6.00 Build 0)  -->
<!DOCTYPE svg PUBLIC "-//W3C//DTD SVG 1.1//EN" "http://www.w3.org/Graphics/SVG/1.1/DTD/svg11.dtd">
<svg version="1.1" id="Ebene_1" xmlns="http://www.w3.org/2000/svg" xmlns:xlink="http://www.w3.org/1999/xlink" x="0px" y="0px"
	 width="841.89px" height="595.28px" viewBox="0 0 841.89 595.28" enable-background="new 0 0 841.89 595.28" xml:space="preserve">
<circle cx="420.623" cy="284.02" r="76.368"/>
<path d="M420.622,363.368c-43.752,0-79.346-35.596-79.346-79.349s35.594-79.348,79.346-79.348c43.753,0,79.349,35.595,79.349,79.348
	S464.375,363.368,420.622,363.368z M420.622,206.629c-42.672,0-77.388,34.717-77.388,77.39s34.716,77.39,77.388,77.39
	c42.673,0,77.39-34.717,77.39-77.39S463.295,206.629,420.622,206.629z"/>
<g>
	<path d="M350.015,369.035h6.996c2.707,0.02,4.738,1.18,6.092,3.484c0.484,0.773,0.791,1.586,0.918,2.436
		c0.101,0.85,0.15,2.316,0.15,4.404c0,2.217-0.077,3.766-0.232,4.645c-0.073,0.443-0.184,0.84-0.33,1.189
		c-0.154,0.34-0.342,0.693-0.562,1.061c-0.585,0.973-1.399,1.775-2.442,2.408c-1.033,0.68-2.3,1.02-3.8,1.02h-6.79V369.035z
		 M353.042,386.736h3.625c1.703,0,2.939-0.6,3.708-1.801c0.339-0.445,0.554-1.008,0.646-1.689c0.082-0.672,0.123-1.93,0.123-3.773
		c0-1.799-0.041-3.084-0.123-3.861c-0.109-0.775-0.371-1.404-0.783-1.887c-0.842-1.201-2.032-1.783-3.57-1.744h-3.625V386.736z"/>
	<path d="M371.94,381.188l-6.019-12.152h3.21l4.239,9.16l4.239-9.16h3.21l-6.022,12.15v8.496h-2.857V381.188z"/>
	<path d="M383.828,369.035h2.854l9.056,14.678h0.055v-14.678h3.028v20.646h-2.868l-9.043-14.678h-0.055v14.678h-3.027V369.035z"/>
	<path d="M414.784,385.064h-7.585l-1.535,4.617h-3.21l7.27-20.646h2.537l7.269,20.646h-3.196L414.784,385.064z M413.92,382.291
		l-2.894-9.031h-0.056l-2.894,9.031H413.92z"/>
	<path d="M423.339,384.68c1.593,1.354,3.487,2.039,5.684,2.057c2.599-0.037,3.916-0.996,3.953-2.877
		c0.019-1.539-0.851-2.465-2.606-2.777c-0.806-0.113-1.688-0.24-2.648-0.383c-1.719-0.293-3.027-0.949-3.923-1.969
		c-0.924-1.049-1.386-2.324-1.386-3.828c0-1.803,0.58-3.26,1.74-4.363c1.123-1.098,2.718-1.654,4.782-1.674
		c2.485,0.057,4.646,0.768,6.482,2.133l-1.688,2.57c-1.5-1.021-3.152-1.551-4.954-1.588c-0.934,0-1.711,0.24-2.333,0.723
		c-0.649,0.5-0.983,1.246-1.002,2.238c0,0.596,0.224,1.135,0.672,1.615c0.448,0.492,1.167,0.832,2.154,1.021
		c0.549,0.094,1.299,0.203,2.25,0.326c1.875,0.264,3.261,0.959,4.156,2.082c0.888,1.105,1.331,2.391,1.331,3.855
		c-0.101,3.949-2.439,5.953-7.017,6.01c-2.961,0-5.505-0.939-7.634-2.818L423.339,384.68z"/>
	<path d="M450.848,385.064h-7.585l-1.535,4.617h-3.21l7.27-20.646h2.537l7.269,20.646h-3.196L450.848,385.064z M449.983,382.291
		l-2.894-9.031h-0.056l-2.894,9.031H449.983z"/>
	<path d="M458.263,369.035h3.027v13.322c0.019,1.408,0.412,2.48,1.182,3.217c0.751,0.775,1.717,1.162,2.897,1.162
		c1.182,0,2.157-0.387,2.926-1.162c0.751-0.736,1.136-1.809,1.154-3.217v-13.322h3.027v13.65c-0.036,2.172-0.718,3.895-2.044,5.17
		c-1.336,1.311-3.023,1.977-5.063,1.996c-2.003-0.02-3.677-0.684-5.021-1.994c-1.372-1.273-2.067-2.994-2.085-5.164V369.035z"/>
	<path d="M477.768,369.035h7.813c1.666,0,3.025,0.453,4.078,1.359c1.267,1.029,1.928,2.498,1.982,4.404
		c-0.036,2.805-1.323,4.711-3.861,5.721l4.628,9.162h-3.597l-4.139-8.824h-3.878v8.824h-3.027V369.035z M480.795,378.086h4.593
		c1.137-0.02,1.989-0.359,2.558-1.023c0.559-0.615,0.839-1.371,0.839-2.271c-0.019-1.078-0.354-1.859-1.004-2.342
		c-0.514-0.426-1.256-0.639-2.228-0.639h-4.758V378.086z"/>
</g>
<path fill="#FFFFFF" d="M456.924,241.62l-21.923-11.931c-0.06-0.032-0.13-0.037-0.194-0.01l-10.289,4.325
	c-0.06,0.025-0.105,0.075-0.126,0.136l-8.937,26.956l-15.934,20.474c-0.024,0.032-0.04,0.069-0.045,0.108l-1.781,13.474
	l-8.748,12.126l-32.939,4.887c-0.108,0.017-0.188,0.107-0.191,0.216c-0.003,0.109,0.073,0.204,0.18,0.226l33.033,6.536
	c0.045,0.009,0.095,0.004,0.138-0.017l15.721-7.315l15.683,14.92c0.042,0.04,0.097,0.062,0.154,0.062h15.958
	c0.105,0,0.196-0.073,0.219-0.177c0.022-0.103-0.03-0.208-0.127-0.251l-2.723-1.228l4.425-0.036c0.1-0.001,0.187-0.067,0.214-0.163
	c0.026-0.096-0.013-0.198-0.098-0.251l-6.375-3.973l6.016-15.105c0.03-0.075,0.017-0.161-0.034-0.224l-6.198-7.646l5.893-27.744
	l6.623,2.16c0.093,0.031,0.198-0.004,0.254-0.087c0.057-0.082,0.052-0.191-0.012-0.268l-4.176-5.071
	c-0.038-0.046-0.092-0.075-0.15-0.081l-2.725-0.272l0.49-1.957l2.887,0.137l3.379,2.204c0.083,0.054,0.192,0.047,0.269-0.018
	c0.075-0.065,0.099-0.172,0.057-0.263l-2.386-5.22c-0.033-0.074-0.105-0.125-0.188-0.13l-4.117-0.284v-11.179l13.626,1.172
	c0.039,0.001,0.075-0.003,0.11-0.019l5.071-2.237c0.081-0.036,0.133-0.116,0.133-0.205v-6.562
	C457.04,241.735,456.995,241.66,456.924,241.62z M434.881,230.134l21.434,11.664l-4.95,2.237l-26.154-9.836L434.881,230.134z
	 M415.719,261.487l10.766,5.472l-10.365,16.524l-16.002-1.95L415.719,261.487z M399.891,281.957l16.218,1.976l13.957,19.338
	l-25.008,7.997l-6.919-16.063L399.891,281.957z M397.86,295.689l6.781,15.743l-15.344,7.141v-11.014L397.86,295.689z
	 M388.85,307.746v10.904l-31.497-6.232L388.85,307.746z M405.36,311.641l24.849-7.945l0.283,20.079l-3.098,2.57h-6.58
	L405.36,311.641z M428.094,326.345l2.659-2.206l4.89,2.206H428.094z M437.703,324.659l-4.625,0.038l-2.073-0.936l1.046-2.625
	L437.703,324.659z M437.77,305.564l-6.844,17.187l-0.273-19.335l1.221-5.125L437.77,305.564z M431.543,297.745L431.543,297.745
	l-1.219,5.118l-13.821-19.149l10.403-16.586l10.559,2.739L431.543,297.745z M443.926,271.49l-5.793-1.889l2.267-2.394
	L443.926,271.49z M439.936,267.048l-2.279,2.407l-9.271-2.405l9.034-0.253L439.936,267.048z M437.253,266.354l-10.398,0.292
	l-10.926-5.554l8.765-26.438l12.959,14.853v11.548c0,0.004,0.004,0.006,0.004,0.011h-0.004l0.148,3.1L437.253,266.354z
	 M441.002,264.104l-2.762-0.131l-0.129-2.678l3.782,0.262L441.002,264.104z M441.426,264.244l0.803-2.292l1.834,4.012
	L441.426,264.244z M437.985,249.207l-12.628-14.474l25.8,9.702l0.349,5.935L437.985,249.207z M451.95,250.281l-0.346-5.863
	l4.988-2.254v6.069L451.95,250.281z"/>
<path opacity="0.6" fill="#FFFFFF" d="M434.894,229.886l-10.289,4.325l-8.949,26.993l-15.957,20.504l-1.789,13.53l-8.836,12.249
	l-33.033,4.9l33.033,6.536l15.859-7.38l15.793,15.025h15.958l-3.653-1.647l5.445-0.044l-6.534-4.072l6.085-15.279l-6.266-7.729
	l5.967-28.092l6.859,2.237l-4.176-5.071l-2.982-0.298l0.598-2.386l3.131,0.149l3.43,2.237l-2.386-5.22l-4.325-0.298v-11.632
	l13.869,1.193l5.071-2.237v-6.562L434.894,229.886z M433.03,324.92"/>
<g>
	<path fill="#FFFFFF" d="M422.866,254.516c0,3.441,2.789,6.231,6.229,6.231v-6.231H422.866z"/>
	<path d="M435.327,254.516h-6.231v6.231C432.538,260.747,435.327,257.957,435.327,254.516z"/>
	<path fill="#FFFFFF" d="M429.096,248.285v6.23h6.231C435.327,251.075,432.538,248.285,429.096,248.285z"/>
	<path d="M429.096,248.285c-3.44,0-6.229,2.79-6.229,6.23h6.229V248.285z"/>
</g>
</svg>
